{
  "images" : [
    {
      "idiom" : "iphone",
      "scale" : "1x",
      "filename" : "contactTw.png"
    },
    {
      "idiom" : "iphone",
      "scale" : "2x",
      "filename" : "contactTw@2x.png"
    },
    {
      "idiom" : "iphone",
      "scale" : "3x"
    },
    {
      "idiom" : "ipad",
      "scale" : "1x",
      "filename" : "contactTw_iPad.png"
    },
    {
      "idiom" : "ipad",
      "scale" : "2x",
      "filename" : "contactTw_iPad@2x.png"
    }
  ],
  "info" : {
    "version" : 1,
    "author" : "xcode"
  }
}